Chapter 17 Compadre_Orchid PPM y su uso | Dinamica_Poblacional
…
17.1.0.2 Evaluate if a genus/species are present in the data base

Ex = ALLSp %>% 
  filter(Genus %in% c("Epipactis"))
Ex # This shows that the species added Epidendrum xanthinum is not yet included in the data base

## A COM(P)ADRE database ('CompadreDB') object with 1 SPECIES and 51 MATRICES.
## 
## # A tibble: 51 × 59
##    mat        MatrixID SpeciesAuthor   SpeciesAccepted CommonName Kingdom Phylum
##    <list>        <int> <chr>           <chr>           <chr>      <chr>   <chr> 
##  1 <CompdrMt>   238565 Epipactis_atro… Epipactis atro… Darkred h… Plantae Trach…
##  2 <CompdrMt>   238566 Epipactis_atro… Epipactis atro… Darkred h… Plantae Trach…
##  3 <CompdrMt>   238568 Epipactis_atro… Epipactis atro… Darkred h… Plantae Trach…
##  4 <CompdrMt>   238569 Epipactis_atro… Epipactis atro… Darkred h… Plantae Trach…
##  5 <CompdrMt>   238570 Epipactis_atro… Epipactis atro… Darkred h… Plantae Trach…
##  6 <CompdrMt>   238574 Epipactis_atro… Epipactis atro… Darkred h… Plantae Trach…
##  7 <CompdrMt>   238575 Epipactis_atro… Epipactis atro… Darkred h… Plantae Trach…
##  8 <CompdrMt>   238576 Epipactis_atro… Epipactis atro… Darkred h… Plantae Trach…
##  9 <CompdrMt>   242965 Epipactis_atro… Epipactis atro… Darkred h… Plantae Magno…
## 10 <CompdrMt>   242966 Epipactis_atro… Epipactis atro… Darkred h… Plantae Magno…
## # ℹ 41 more rows
## # ℹ 52 more variables: Class <chr>, Order <chr>, Family <chr>, Genus <chr>,
## #   Species <chr>, Infraspecies <chr>, InfraspeciesType <chr>,
## #   OrganismType <chr>, DicotMonoc <chr>, AngioGymno <chr>, Authors <chr>,
## #   Journal <chr>, SourceType <chr>, OtherType <chr>, YearPublication <chr>,
## #   DOI_ISBN <chr>, AdditionalSource <chr>, StudyDuration <chr>,
## #   StudyStart <chr>, StudyEnd <chr>, ProjectionInterval <chr>, …
…
subset(index_O, Family =="Orchidaceae"  &
             MatrixDimension >2)

## A COM(P)ADRE database ('CompadreDB') object with 46 SPECIES and 647 MATRICES.
## 
## # A tibble: 647 × 59
##    mat        MatrixID SpeciesAuthor   SpeciesAccepted CommonName Kingdom Phylum
##    <list>        <int> <chr>           <chr>           <chr>      <chr>   <chr> 
##  1 <CompdrMt>   238285 Caladenia_amon… Caladenia amon… <NA>       Plantae Trach…
##  2 <CompdrMt>   238286 Caladenia_argo… Caladenia argo… <NA>       Plantae Trach…
##  3 <CompdrMt>   238287 Caladenia_clav… Caladenia clav… <NA>       Plantae Trach…
##  4 <CompdrMt>   238288 Caladenia_eleg… Caladenia eleg… <NA>       Plantae Trach…
##  5 <CompdrMt>   238289 Caladenia_gran… Caladenia gran… <NA>       Plantae Trach…
##  6 <CompdrMt>   238290 Caladenia_macr… Caladenia macr… <NA>       Plantae Trach…
##  7 <CompdrMt>   238291 Caladenia_oeno… Caladenia oeno… <NA>       Plantae Trach…
##  8 <CompdrMt>   238292 Caladenia_rose… Caladenia rose… <NA>       Plantae Trach…
##  9 <CompdrMt>   238293 Caladenia_vali… Caladenia vali… <NA>       Plantae Trach…
## 10 <CompdrMt>   238565 Epipactis_atro… Epipactis atro… Darkred h… Plantae Trach…
## # ℹ 637 more rows
## # ℹ 52 more variables: Class <chr>, Order <chr>, Family <chr>, Genus <chr>,
## #   Species <chr>, Infraspecies <chr>, InfraspeciesType <chr>,
## #   OrganismType <chr>, DicotMonoc <chr>, AngioGymno <chr>, Authors <chr>,
## #   Journal <chr>, SourceType <chr>, OtherType <chr>, YearPublication <chr>,
## #   DOI_ISBN <chr>, AdditionalSource <chr>, StudyDuration <dbl>,
## #   StudyStart <chr>, StudyEnd <chr>, ProjectionInterval <chr>, …
…
x_OT=x %>% 
  group_by(OrganismType)

#Orchids_New=as_cdb(index)
#compadre$mat[index]

Compadre_flagged <- cdb_flag(index_O)

x <- subset(Compadre_flagged, check_NA_A == FALSE & check_ergodic == TRUE)
x

## A COM(P)ADRE database ('CompadreDB') object with 45 SPECIES and 484 MATRICES.
## 
## # A tibble: 484 × 73
##    mat        MatrixID SpeciesAuthor   SpeciesAccepted CommonName Kingdom Phylum
##    <list>        <int> <chr>           <chr>           <chr>      <chr>   <chr> 
##  1 <CompdrMt>   238285 Caladenia_amon… Caladenia amon… <NA>       Plantae Trach…
##  2 <CompdrMt>   238286 Caladenia_argo… Caladenia argo… <NA>       Plantae Trach…
##  3 <CompdrMt>   238287 Caladenia_clav… Caladenia clav… <NA>       Plantae Trach…
##  4 <CompdrMt>   238288 Caladenia_eleg… Caladenia eleg… <NA>       Plantae Trach…
##  5 <CompdrMt>   238289 Caladenia_gran… Caladenia gran… <NA>       Plantae Trach…
##  6 <CompdrMt>   238290 Caladenia_macr… Caladenia macr… <NA>       Plantae Trach…
##  7 <CompdrMt>   238291 Caladenia_oeno… Caladenia oeno… <NA>       Plantae Trach…
##  8 <CompdrMt>   238292 Caladenia_rose… Caladenia rose… <NA>       Plantae Trach…
##  9 <CompdrMt>   238293 Caladenia_vali… Caladenia vali… <NA>       Plantae Trach…
## 10 <CompdrMt>   238565 Epipactis_atro… Epipactis atro… Darkred h… Plantae Trach…
## # ℹ 474 more rows
## # ℹ 66 more variables: Class <chr>, Order <chr>, Family <chr>, Genus <chr>,
## #   Species <chr>, Infraspecies <chr>, InfraspeciesType <chr>,
## #   OrganismType <chr>, DicotMonoc <chr>, AngioGymno <chr>, Authors <chr>,
## #   Journal <chr>, SourceType <chr>, OtherType <chr>, YearPublication <chr>,
## #   DOI_ISBN <chr>, AdditionalSource <chr>, StudyDuration <dbl>,
## #   StudyStart <chr>, StudyEnd <chr>, ProjectionInterval <chr>, …

y <- subset(Compadre_flagged, check_NA_A == FALSE & check_irreducible == TRUE)

y

## A COM(P)ADRE database ('CompadreDB') object with 43 SPECIES and 360 MATRICES.
## 
## # A tibble: 360 × 73
##    mat        MatrixID SpeciesAuthor   SpeciesAccepted CommonName Kingdom Phylum
##    <list>        <int> <chr>           <chr>           <chr>      <chr>   <chr> 
##  1 <CompdrMt>   238285 Caladenia_amon… Caladenia amon… <NA>       Plantae Trach…
##  2 <CompdrMt>   238286 Caladenia_argo… Caladenia argo… <NA>       Plantae Trach…
##  3 <CompdrMt>   238287 Caladenia_clav… Caladenia clav… <NA>       Plantae Trach…
##  4 <CompdrMt>   238288 Caladenia_eleg… Caladenia eleg… <NA>       Plantae Trach…
##  5 <CompdrMt>   238289 Caladenia_gran… Caladenia gran… <NA>       Plantae Trach…
##  6 <CompdrMt>   238290 Caladenia_macr… Caladenia macr… <NA>       Plantae Trach…
##  7 <CompdrMt>   238291 Caladenia_oeno… Caladenia oeno… <NA>       Plantae Trach…
##  8 <CompdrMt>   238292 Caladenia_rose… Caladenia rose… <NA>       Plantae Trach…
##  9 <CompdrMt>   238293 Caladenia_vali… Caladenia vali… <NA>       Plantae Trach…
## 10 <CompdrMt>   238565 Epipactis_atro… Epipactis atro… Darkred h… Plantae Trach…
## # ℹ 350 more rows
## # ℹ 66 more variables: Class <chr>, Order <chr>, Family <chr>, Genus <chr>,
## #   Species <chr>, Infraspecies <chr>, InfraspeciesType <chr>,
## #   OrganismType <chr>, DicotMonoc <chr>, AngioGymno <chr>, Authors <chr>,
## #   Journal <chr>, SourceType <chr>, OtherType <chr>, YearPublication <chr>,
## #   DOI_ISBN <chr>, AdditionalSource <chr>, StudyDuration <dbl>,
## #   StudyStart <chr>, StudyEnd <chr>, ProjectionInterval <chr>, …

xy <- subset(Compadre_flagged, check_NA_A == FALSE & check_irreducible == TRUE & check_ergodic == TRUE)
xy

## A COM(P)ADRE database ('CompadreDB') object with 43 SPECIES and 360 MATRICES.
## 
## # A tibble: 360 × 73
##    mat        MatrixID SpeciesAuthor   SpeciesAccepted CommonName Kingdom Phylum
##    <list>        <int> <chr>           <chr>           <chr>      <chr>   <chr> 
##  1 <CompdrMt>   238285 Caladenia_amon… Caladenia amon… <NA>       Plantae Trach…
##  2 <CompdrMt>   238286 Caladenia_argo… Caladenia argo… <NA>       Plantae Trach…
##  3 <CompdrMt>   238287 Caladenia_clav… Caladenia clav… <NA>       Plantae Trach…
##  4 <CompdrMt>   238288 Caladenia_eleg… Caladenia eleg… <NA>       Plantae Trach…
##  5 <CompdrMt>   238289 Caladenia_gran… Caladenia gran… <NA>       Plantae Trach…
##  6 <CompdrMt>   238290 Caladenia_macr… Caladenia macr… <NA>       Plantae Trach…
##  7 <CompdrMt>   238291 Caladenia_oeno… Caladenia oeno… <NA>       Plantae Trach…
##  8 <CompdrMt>   238292 Caladenia_rose… Caladenia rose… <NA>       Plantae Trach…
##  9 <CompdrMt>   238293 Caladenia_vali… Caladenia vali… <NA>       Plantae Trach…
## 10 <CompdrMt>   238565 Epipactis_atro… Epipactis atro… Darkred h… Plantae Trach…
## # ℹ 350 more rows
## # ℹ 66 more variables: Class <chr>, Order <chr>, Family <chr>, Genus <chr>,
## #   Species <chr>, Infraspecies <chr>, InfraspeciesType <chr>,
## #   OrganismType <chr>, DicotMonoc <chr>, AngioGymno <chr>, Authors <chr>,
## #   Journal <chr>, SourceType <chr>, OtherType <chr>, YearPublication <chr>,
## #   DOI_ISBN <chr>, AdditionalSource <chr>, StudyDuration <dbl>,
## #   StudyStart <chr>, StudyEnd <chr>, ProjectionInterval <chr>, …
…
ggsave("Terr_Epi_lambda.png")

## Saving 7 x 5 in image
## `stat_bin()` using `bins = 30`. Pick better value with `binwidth`.

17.5.2 The number of populations

x2 %>% 
  group_by(SpeciesAccepted) %>% 
  summarize(n_populations = length(unique(MatrixPopulation))) %>% 
  arrange(desc(n_populations))

## # A tibble: 43 × 2
##    SpeciesAccepted          n_populations
##    <chr>                            <int>
##  1 Lepanthes rubripetala               20
##  2 Lepanthes rupestris                 14
##  3 Lepanthes caritensis                13
##  4 Cypripedium calceolus                8
##  5 Orchis purpurea                      7
##  6 Neotinea ustulata                    6
##  7 Serapias cordigera                   6
##  8 Cypripedium fasciculatum             4
##  9 Epipactis atrorubens                 4
## 10 Oeceoclades maculata                 4
## # ℹ 33 more rows

compadre_replicated_pops <- x2 %>% 
  group_by(SpeciesAccepted) %>% 
  mutate(n_pops = length(unique(MatrixPopulation))) %>% 
  ungroup() %>%
  subset(n_pops >= 10)

compadre_replicated_pops

## A COM(P)ADRE database ('CompadreDB') object with 3 SPECIES and 88 MATRICES.
## 
## # A tibble: 88 × 74
##    mat        MatrixID SpeciesAuthor   SpeciesAccepted CommonName Kingdom Phylum
##    <list>        <int> <chr>           <chr>           <chr>      <chr>   <chr> 
##  1 <CompdrMt>   238838 Lepanthes_rubr… Lepanthes rubr… <NA>       Plantae Magno…
##  2 <CompdrMt>   239751 Lepanthes_cari… Lepanthes cari… <NA>       Plantae Magno…
##  3 <CompdrMt>   239752 Lepanthes_cari… Lepanthes cari… <NA>       Plantae Magno…
##  4 <CompdrMt>   239756 Lepanthes_cari… Lepanthes cari… <NA>       Plantae Magno…
##  5 <CompdrMt>   239764 Lepanthes_cari… Lepanthes cari… <NA>       Plantae Magno…
##  6 <CompdrMt>   239769 Lepanthes_cari… Lepanthes cari… <NA>       Plantae Magno…
##  7 <CompdrMt>   239771 Lepanthes_cari… Lepanthes cari… <NA>       Plantae Magno…
##  8 <CompdrMt>   239772 Lepanthes_cari… Lepanthes cari… <NA>       Plantae Magno…
##  9 <CompdrMt>   239775 Lepanthes_cari… Lepanthes cari… <NA>       Plantae Magno…
## 10 <CompdrMt>   239776 Lepanthes_cari… Lepanthes cari… <NA>       Plantae Magno…
## # ℹ 78 more rows
## # ℹ 67 more variables: Class <chr>, Order <chr>, Family <chr>, Genus <chr>,
## #   Species <chr>, Infraspecies <chr>, InfraspeciesType <chr>,
## #   OrganismType <chr>, DicotMonoc <chr>, AngioGymno <chr>, Authors <chr>,
## #   Journal <chr>, SourceType <chr>, OtherType <chr>, YearPublication <chr>,
## #   DOI_ISBN <chr>, AdditionalSource <chr>, StudyDuration <dbl>,
## #   StudyStart <chr>, StudyEnd <chr>, ProjectionInterval <chr>, …
…
## Saving 7 x 5 in image

## Warning: Removed 1 row containing non-finite outside the scale range (`stat_boxplot()`).
## Removed 1 row containing missing values or values outside the scale range
## (`geom_point()`).

#SPECIES_O$SpeciesAccepted <- fct_reorder(SPECIES_O$SpeciesAccepted, SPECIES_O$StudyStart, .desc = FALSE)

compadre_life_expect |> select(mat, Genus, SpeciesAccepted, life_expectancy) |> 
  group_by(SpeciesAccepted) |> 
  summarize(mean_LS= mean(life_expectancy, na.rm=TRUE),
            sd_LS = sd(life_expectancy, na.rm=TRUE))

## # A tibble: 29 × 3
##    SpeciesAccepted       mean_LS sd_LS
##    <chr>                   <dbl> <dbl>
##  1 Aspasia principissa      5.43    NA
##  2 Broughtonia cubensis    15.0     NA
##  3 Caladenia amonea         6.96    NA
##  4 Caladenia argocalla      2.27    NA
##  5 Caladenia clavigera      5.89    NA
##  6 Caladenia elegans        3.01    NA
##  7 Caladenia graniticola    3.65    NA
##  8 Caladenia macroclavia    2.31    NA
##  9 Caladenia oenochila      3.94    NA
## 10 Caladenia rosella        4.48    NA
## # ℹ 19 more rows
…
unique(compadre_life_expect$OrganismType)

## [1] Herbaceous perennial Epiphyte            
## Levels: Epiphyte Herbaceous perennial

Cf=cdb_flatten(compadre_life_expect)

YSEC_T=Cf %>% 
  dplyr::select("life_expectancy", "OrganismType") %>% 
  filter(OrganismType== "Herbaceous perennial")

YSEC_T

## # A tibble: 21 × 2
##    life_expectancy OrganismType        
##              <dbl> <fct>               
##  1            6.96 Herbaceous perennial
##  2            2.27 Herbaceous perennial
##  3            5.89 Herbaceous perennial
##  4            3.01 Herbaceous perennial
##  5            3.65 Herbaceous perennial
##  6            2.31 Herbaceous perennial
##  7            3.94 Herbaceous perennial
##  8            4.48 Herbaceous perennial
##  9            2.55 Herbaceous perennial
## 10           21.2  Herbaceous perennial
## # ℹ 11 more rows
…
